…
    ## 
    ## i Use `spec()` to retrieve the full column specification for this data.
    ## i Specify the column types or set `show_col_types = FALSE` to quiet this message.

``` r
xian_line = xian %>% 
  filter(date %within% date_interval)

xian_line
```

    ## # A tibble: 760 x 7
    ##    date        pm25  pm10    o3   no2   so2    co
    ##    <date>     <dbl> <dbl> <dbl> <dbl> <dbl> <dbl>
    ##  1 2018-07-01   124    54    80    17     4     8
    ##  2 2018-07-02    96    52    61    15     2     9
    ##  3 2018-07-03   119    39    41    14     2     8
    ##  4 2018-07-04    94    20    41    14     1    10
    ##  5 2018-07-05    55    44    84    19     2    11
    ##  6 2018-07-06    84    68    93    27     3    12
    ##  7 2018-07-07   131    75   115    31     4    11
    ##  8 2018-07-08   150    51    35    18     2    10
    ##  9 2018-07-09   106    31    37    15     2    10
    ## 10 2018-07-10    71    34    27    13     2    10
    ## # ... with 750 more rows
…
