…
pm25_diff = 
  left_join(pm25_2020_mean, pm25_2019_mean) %>% 
  mutate(diff = mean_pm25_2019 - mean_pm25_2020)
```

    ## Joining, by = "city"

``` r
pm25_diff
```

    ## # A tibble: 100 × 4
    ##    city      mean_pm25_2020 mean_pm25_2019   diff
    ##    <chr>              <dbl>          <dbl>  <dbl>
    ##  1 Anyang             135.            179. 44.0  
    ##  2 Baoding            125.            151. 26.1  
    ##  3 Baotou             123.            128.  4.78 
    ##  4 Beijing            101.            117. 15.6  
    ##  5 Cangzhou           113.            134. 21.6  
    ##  6 Changchun          130.            131.  0.970
    ##  7 Changde            114.            116.  2.06 
    ##  8 Changsha           120.            125.  4.98 
    ##  9 Changzhou           97.0           124. 26.6  
    ## 10 Chengdu            120.            130. 10.4  
    ## # … with 90 more rows
…
