regression_analysis
…
Calculate daily pm2.5 AQI differences between 2019 and 2020 for each city.

pm25_diff = 
  left_join(pm25_2020, pm25_2019, by = c("city", "date")) %>% 
  drop_na() %>% 
  mutate(pm25_diff = pm25_2019 - pm25_2020) %>% 
  group_by(city) %>% 
  summarize(mean_diff = mean(pm25_diff, na.rm = T))

pm25_diff

## # A tibble: 100 × 2
##    city      mean_diff
##    <chr>         <dbl>
##  1 Anyang        45.5 
##  2 Baoding       28.4 
##  3 Baotou         6.53
##  4 Beijing       16.0 
##  5 Cangzhou      23.3 
##  6 Changchun      1.18
##  7 Changde        1.61
##  8 Changsha       4.03
##  9 Changzhou     27.1 
## 10 Chengdu       10.5 
## # … with 90 more rows

Load the gdp and population dataset and join it to pm25_diff.

gdp_pop_df = 
  read_csv("data/gpd_and_popluation.csv") %>% 
  janitor::clean_names() %>% 
  mutate(pop_ln = log(population_thousand, base = exp(1)),
         gdp_ln = log(gdp_billion, base = exp(1))) %>% 
  select(city, gdp_ln, pop_ln)

diff_gdp_pop_df = left_join(pm25_diff, gdp_pop_df) 
diff_gdp_pop_df

## # A tibble: 100 × 4
##    city      mean_diff gdp_ln pop_ln
##    <chr>         <dbl>  <dbl>  <dbl>
##  1 Anyang        45.5    5.65   8.55
##  2 Baoding       28.4    5.96   9.37
##  3 Baotou         6.53   5.69   7.97
##  4 Beijing       16.0    8.17   9.99
##  5 Cangzhou      23.3    5.88   8.93
##  6 Changchun      1.18   6.38   8.99
##  7 Changde        1.61   5.89   8.67
##  8 Changsha       4.03   7.14   9.01
##  9 Changzhou     27.1    6.61   8.56
## 10 Chengdu       10.5    7.44   9.70
## # … with 90 more rows
…
weather_df

## # A tibble: 900 × 4
##    city    date        prcp  tavg
##    <chr>   <date>     <dbl> <dbl>
##  1 Beijing 2020-02-01   1     1.6
##  2 Beijing 2020-02-02   0.3  -2.8
##  3 Beijing 2020-02-03   0    -2.6
##  4 Beijing 2020-02-04   0    -4.1
##  5 Beijing 2020-02-05   2.8  -6  
##  6 Beijing 2020-02-06   1.3  -6.1
##  7 Beijing 2020-02-07   0    -4.4
##  8 Beijing 2020-02-08   0    -0.6
##  9 Beijing 2020-02-09   0    -0.5
## 10 Beijing 2020-02-10   0     1.8
## # … with 890 more rows
…
city_10_df =
  city_100_df %>% 
  filter(date > "2020-01-31" & date < "2020-05-01") %>% 
  filter(city %in% c("Beijing", "Shanghai", "Harbin", "Shenyang", "Lasa", "Chengdu", "Kunming", "Guangzhou", "Xian", "Wuhan"))

pm25_tavg_df = 
  left_join(city_10_df, weather_df, by = c("city", "date")) %>% 
  arrange(date) %>% 
  select(city, date, pm25, tavg) %>% 
  drop_na() 

pm25_tavg_df

## # A tibble: 794 × 4
##    city      date        pm25  tavg
##    <chr>     <date>     <dbl> <dbl>
##  1 Beijing   2020-02-01   120   1.6
##  2 Chengdu   2020-02-01   120   8.8
##  3 Guangzhou 2020-02-01    84  15.6
##  4 Harbin    2020-02-01   240 -14.9
##  5 Kunming   2020-02-01    75   9.3
##  6 Shanghai  2020-02-01   126   4.9
##  7 Shenyang  2020-02-01   257  -9.4
##  8 Wuhan     2020-02-01   168  10  
##  9 Xian      2020-02-01   197   5.3
## 10 Beijing   2020-02-02    30  -2.8
## # … with 784 more rows
…
